\relax 
\ifx\hyper@anchor\@undefined
\global \let \oldcontentsline\contentsline
\gdef \contentsline#1#2#3#4{\oldcontentsline{#1}{#2}{#3}}
\global \let \oldnewlabel\newlabel
\gdef \newlabel#1#2{\newlabelxx{#1}#2}
\gdef \newlabelxx#1#2#3#4#5#6{\oldnewlabel{#1}{{#2}{#3}}}
\AtEndDocument{\let \contentsline\oldcontentsline
\let \newlabel\oldnewlabel}
\else
\global \let \hyper@last\relax 
\fi

\providecommand*\HyPL@Entry[1]{}
\HyPL@Entry{0<</S/D>>}
\@writefile{toc}{\contentsline {section}{\numberline {1}Traps}{1}{section.1}}
\newlabel{Traps}{{1}{1}{Traps\relax }{section.1}{}}
\@writefile{toc}{\contentsline {subsection}{\numberline {1.1}Example}{1}{subsection.1.1}}
\newlabel{section:ModulesAndCommands}{{1.1}{1}{Example\relax }{subsection.1.1}{}}
